# This file uses centimeters as units for non-parametric coordinates.

mtllib carbonCylinder.mtl
g default
v 0.803959 0.000000 -0.292617
v 0.655394 0.000000 -0.549941
v 0.427778 0.000000 -0.740933
v 0.148566 0.000000 -0.842558
v -0.148565 0.000000 -0.842558
v -0.427778 0.000000 -0.740933
v -0.655394 0.000000 -0.549941
v -0.803959 0.000000 -0.292618
v -0.855556 0.000000 -0.000000
v -0.803959 0.000000 0.292617
v -0.655394 0.000000 0.549941
v -0.427778 0.000000 0.740933
v -0.148566 0.000000 0.842558
v 0.148566 0.000000 0.842558
v 0.427778 0.000000 0.740933
v 0.655394 0.000000 0.549941
v 0.803959 0.000000 0.292617
v 0.855556 0.000000 0.000000
v 0.279399 1.000000 -0.101693
v 0.227767 1.000000 -0.191120
v 0.148665 1.000000 -0.257495
v 0.051631 1.000000 -0.292813
v -0.051631 1.000000 -0.292813
v -0.148665 1.000000 -0.257495
v -0.227767 1.000000 -0.191120
v -0.279399 1.000000 -0.101693
v -0.297330 1.000000 -0.000000
v -0.279399 1.000000 0.101693
v -0.227767 1.000000 0.191120
v -0.148665 1.000000 0.257495
v -0.051631 1.000000 0.292813
v 0.051631 1.000000 0.292813
v 0.148665 1.000000 0.257495
v 0.227767 1.000000 0.191120
v 0.279399 1.000000 0.101693
v 0.297330 1.000000 0.000000
v 0.000000 0.000000 0.000000
v 0.000000 1.000000 0.000000
v 0.618039 0.895385 -0.224948
v 0.503830 0.895385 -0.422764
v 0.328852 0.895385 -0.569588
v 0.114209 0.895385 -0.647712
v -0.114209 0.895385 -0.647712
v -0.328852 0.895385 -0.569588
v -0.503830 0.895385 -0.422764
v -0.618039 0.895385 -0.224948
v -0.657703 0.895385 -0.000000
v -0.618039 0.895385 0.224948
v -0.503830 0.895385 0.422764
v -0.328852 0.895385 0.569588
v -0.114209 0.895385 0.647712
v 0.114209 0.895385 0.647712
v 0.328852 0.895385 0.569588
v 0.503830 0.895385 0.422764
v 0.618039 0.895385 0.224948
v 0.657703 0.895385 0.000000
v 0.724279 0.813428 -0.263616
v 0.590438 0.813428 -0.495436
v 0.385381 0.813428 -0.667499
v 0.133842 0.813428 -0.759052
v -0.133841 0.813428 -0.759052
v -0.385381 0.813428 -0.667500
v -0.590438 0.813428 -0.495436
v -0.724279 0.813428 -0.263616
v -0.770762 0.813428 -0.000000
v -0.724279 0.813428 0.263616
v -0.590438 0.813428 0.495436
v -0.385381 0.813428 0.667500
v -0.133841 0.813428 0.759053
v 0.133841 0.813428 0.759053
v 0.385381 0.813428 0.667500
v 0.590438 0.813428 0.495436
v 0.724279 0.813428 0.263616
v 0.770762 0.813428 0.000000
v 0.803959 0.627365 -0.292617
v 0.655394 0.627365 -0.549941
v 0.427778 0.627365 -0.740933
v 0.148566 0.627365 -0.842558
v -0.148565 0.627365 -0.842558
v -0.427778 0.627365 -0.740933
v -0.655394 0.627365 -0.549941
v -0.803959 0.627365 -0.292618
v -0.855556 0.627365 -0.000000
v -0.803959 0.627365 0.292617
v -0.655394 0.627365 0.549941
v -0.427778 0.627365 0.740933
v -0.148566 0.627365 0.842558
v 0.148566 0.627365 0.842558
v 0.427778 0.627365 0.740933
v 0.655394 0.627365 0.549941
v 0.803959 0.627365 0.292617
v 0.855556 0.627365 0.000000
vt 0.992522 0.836245
vt 0.971243 0.799389
vt 0.938641 0.772033
vt 0.898649 0.757477
vt 0.856091 0.757477
vt 0.816099 0.772033
vt 0.783497 0.799389
vt 0.762218 0.836245
vt 0.754828 0.878157
vt 0.762218 0.920069
vt 0.783497 0.956926
vt 0.816099 0.984282
vt 0.856091 0.998838
vt 0.898649 0.998838
vt 0.938641 0.984282
vt 0.971243 0.956926
vt 0.992522 0.920069
vt 0.999912 0.878157
vt 0.998554 0.458695
vt 0.998554 0.458695
vt 0.998554 0.458695
vt 0.998554 0.458695
vt 0.998554 0.458695
vt 0.998554 0.458695
vt 0.998554 0.458695
vt 0.998554 0.458695
vt 0.998554 0.458695
vt 0.998554 0.458695
vt 0.998554 0.458695
vt 0.998554 0.458695
vt 0.998554 0.458695
vt 0.998554 0.458695
vt 0.998554 0.458695
vt 0.998554 0.458695
vt 0.998554 0.458695
vt 0.998554 0.458695
vt 0.998554 0.699665
vt 0.754211 0.458695
vt 0.754211 0.458695
vt 0.754211 0.458695
vt 0.754211 0.458695
vt 0.754211 0.458695
vt 0.754211 0.458695
vt 0.754211 0.458695
vt 0.754211 0.458695
vt 0.754211 0.458695
vt 0.754211 0.458695
vt 0.754211 0.458695
vt 0.754211 0.458695
vt 0.754211 0.458695
vt 0.754211 0.458695
vt 0.754211 0.458695
vt 0.754211 0.458695
vt 0.754211 0.458695
vt 0.754211 0.458695
vt 0.754211 0.699665
vt 0.992522 0.836245
vt 0.971243 0.799389
vt 0.938641 0.772033
vt 0.898649 0.757477
vt 0.856091 0.757477
vt 0.816099 0.772033
vt 0.783497 0.799389
vt 0.762218 0.836245
vt 0.754828 0.878157
vt 0.762218 0.920069
vt 0.783497 0.956926
vt 0.816099 0.984282
vt 0.856091 0.998838
vt 0.898649 0.998838
vt 0.938641 0.984282
vt 0.971243 0.956926
vt 0.992522 0.920069
vt 0.999912 0.878157
vt 0.877370 0.873256
vt 0.877370 0.873256
vt 0.998554 0.699665
vt 0.754211 0.699665
vt 0.998554 0.699665
vt 0.754211 0.699665
vt 0.998554 0.699665
vt 0.754211 0.699665
vt 0.998554 0.699665
vt 0.754211 0.699665
vt 0.998554 0.699665
vt 0.754211 0.699665
vt 0.998554 0.699665
vt 0.754211 0.699665
vt 0.998554 0.699665
vt 0.754211 0.699665
vt 0.998554 0.699665
vt 0.754211 0.699665
vt 0.998554 0.699665
vt 0.754211 0.699665
vt 0.998554 0.699665
vt 0.754211 0.699665
vt 0.998554 0.699665
vt 0.754211 0.699665
vt 0.998554 0.699665
vt 0.754211 0.699665
vt 0.998554 0.699665
vt 0.754211 0.699665
vt 0.998554 0.699665
vt 0.754211 0.699665
vt 0.998554 0.699665
vt 0.754211 0.699665
vt 0.998554 0.699665
vt 0.754211 0.699665
vt 0.998554 0.699665
vt 0.754211 0.699665
vt 0.779773 0.699665
vt 0.779773 0.458695
vt 0.779773 0.699665
vt 0.779773 0.458695
vt 0.779773 0.699665
vt 0.779773 0.458695
vt 0.779773 0.699665
vt 0.779773 0.458695
vt 0.779773 0.699665
vt 0.779773 0.458695
vt 0.779773 0.699665
vt 0.779773 0.458695
vt 0.779773 0.699665
vt 0.779773 0.458695
vt 0.779773 0.699665
vt 0.779773 0.458695
vt 0.779773 0.699665
vt 0.779773 0.458695
vt 0.779773 0.699665
vt 0.779773 0.458695
vt 0.779773 0.699665
vt 0.779773 0.458695
vt 0.779773 0.699665
vt 0.779773 0.458695
vt 0.779773 0.699665
vt 0.779773 0.458695
vt 0.779773 0.699665
vt 0.779773 0.458695
vt 0.779773 0.699665
vt 0.779773 0.458695
vt 0.779773 0.699665
vt 0.779773 0.458695
vt 0.779773 0.699665
vt 0.779773 0.458695
vt 0.779773 0.699665
vt 0.779773 0.458695
vt 0.799798 0.699665
vt 0.799798 0.458695
vt 0.799798 0.699665
vt 0.799798 0.458695
vt 0.799798 0.699665
vt 0.799798 0.458695
vt 0.799798 0.699665
vt 0.799798 0.458695
vt 0.799798 0.699665
vt 0.799798 0.458695
vt 0.799798 0.699665
vt 0.799798 0.458695
vt 0.799798 0.699665
vt 0.799798 0.458695
vt 0.799798 0.699665
vt 0.799798 0.458695
vt 0.799798 0.699665
vt 0.799798 0.458695
vt 0.799798 0.699665
vt 0.799798 0.458695
vt 0.799798 0.699665
vt 0.799798 0.458695
vt 0.799798 0.699665
vt 0.799798 0.458695
vt 0.799798 0.699665
vt 0.799798 0.458695
vt 0.799798 0.699665
vt 0.799798 0.458695
vt 0.799798 0.699665
vt 0.799798 0.458695
vt 0.799798 0.699665
vt 0.799798 0.458695
vt 0.799798 0.699665
vt 0.799798 0.458695
vt 0.799798 0.699665
vt 0.799798 0.458695
vt 0.845262 0.699665
vt 0.845262 0.458695
vt 0.845262 0.699665
vt 0.845262 0.458695
vt 0.845262 0.699665
vt 0.845262 0.458695
vt 0.845262 0.699665
vt 0.845262 0.458695
vt 0.845262 0.699665
vt 0.845262 0.458695
vt 0.845262 0.699665
vt 0.845262 0.458695
vt 0.845262 0.699665
vt 0.845262 0.458695
vt 0.845262 0.699665
vt 0.845262 0.458695
vt 0.845262 0.699665
vt 0.845262 0.458695
vt 0.845262 0.699665
vt 0.845262 0.458695
vt 0.845262 0.699665
vt 0.845262 0.458695
vt 0.845262 0.699665
vt 0.845262 0.458695
vt 0.845262 0.699665
vt 0.845262 0.458695
vt 0.845262 0.699665
vt 0.845262 0.458695
vt 0.845262 0.699665
vt 0.845262 0.458695
vt 0.845262 0.699665
vt 0.845262 0.458695
vt 0.845262 0.699665
vt 0.845262 0.458695
vt 0.845262 0.699665
vt 0.845262 0.458695
vn 0.261973 0.960353 -0.095351
vn 0.415399 0.896987 -0.151193
vn 0.338636 0.896987 -0.284149
vn 0.213563 0.960353 -0.179201
vn 0.221029 0.896987 -0.382833
vn 0.139393 0.960353 -0.241436
vn 0.076763 0.896987 -0.435342
vn 0.048411 0.960353 -0.274551
vn -0.076763 0.896987 -0.435342
vn -0.048411 0.960353 -0.274551
vn -0.221029 0.896987 -0.382833
vn -0.139393 0.960353 -0.241436
vn -0.338636 0.896987 -0.284149
vn -0.213563 0.960353 -0.179201
vn -0.415398 0.896987 -0.151193
vn -0.261973 0.960353 -0.095351
vn -0.442058 0.896987 -0.000000
vn -0.278787 0.960353 -0.000000
vn -0.415398 0.896987 0.151193
vn -0.261973 0.960353 0.095351
vn -0.338636 0.896987 0.284149
vn -0.213563 0.960353 0.179201
vn -0.221029 0.896987 0.382833
vn -0.139393 0.960353 0.241436
vn -0.076763 0.896987 0.435342
vn -0.048411 0.960353 0.274551
vn 0.076763 0.896987 0.435342
vn 0.048411 0.960353 0.274551
vn 0.221029 0.896987 0.382833
vn 0.139393 0.960353 0.241436
vn 0.338636 0.896987 0.284149
vn 0.213563 0.960353 0.179201
vn 0.415398 0.896987 0.151193
vn 0.261974 0.960353 0.095351
vn 0.442058 0.896987 0.000000
vn 0.278787 0.960353 0.000000
vn 0.000000 -1.000000 0.000000
vn 0.000000 -1.000000 0.000000
vn 0.000000 -1.000000 0.000000
vn 0.000000 -1.000000 0.000000
vn 0.000000 -1.000000 0.000000
vn 0.000000 -1.000000 0.000000
vn 0.000000 -1.000000 0.000000
vn 0.000000 -1.000000 0.000000
vn 0.000000 -1.000000 0.000000
vn 0.000000 -1.000000 0.000000
vn 0.000000 -1.000000 0.000000
vn 0.000000 -1.000000 0.000000
vn 0.000000 -1.000000 0.000000
vn 0.000000 -1.000000 0.000000
vn 0.000000 -1.000000 0.000000
vn 0.000000 -1.000000 0.000000
vn 0.000000 -1.000000 0.000000
vn 0.000000 -1.000000 0.000000
vn 0.000000 -1.000000 0.000000
vn 0.000000 1.000000 0.000000
vn 0.000000 1.000000 0.000000
vn 0.000000 1.000000 0.000000
vn 0.000000 1.000000 0.000000
vn 0.000000 1.000000 0.000000
vn 0.000000 1.000000 0.000000
vn 0.000000 1.000000 0.000000
vn 0.000000 1.000000 0.000000
vn 0.000000 1.000000 0.000000
vn 0.000000 1.000000 0.000000
vn 0.000000 1.000000 0.000000
vn 0.000000 1.000000 0.000000
vn 0.000000 1.000000 0.000000
vn 0.000000 1.000000 0.000000
vn 0.000000 1.000000 0.000000
vn 0.000000 1.000000 0.000000
vn 0.000000 1.000000 0.000000
vn 0.000000 1.000000 0.000000
vn 0.000000 1.000000 0.000000
vn 0.732784 0.626013 -0.266711
vn 0.597371 0.626013 -0.501253
vn 0.389907 0.626013 -0.675337
vn 0.135413 0.626013 -0.767965
vn -0.135413 0.626013 -0.767965
vn -0.389906 0.626013 -0.675337
vn -0.597371 0.626013 -0.501254
vn -0.732784 0.626013 -0.266712
vn -0.779812 0.626013 -0.000000
vn -0.732784 0.626013 0.266711
vn -0.597371 0.626013 0.501253
vn -0.389906 0.626013 0.675337
vn -0.135413 0.626014 0.767965
vn 0.135413 0.626014 0.767965
vn 0.389906 0.626014 0.675337
vn 0.597371 0.626014 0.501253
vn 0.732784 0.626013 0.266711
vn 0.779812 0.626013 0.000000
vn 0.918882 0.209292 -0.334445
vn 0.749079 0.209292 -0.628552
vn 0.488927 0.209292 -0.846845
vn 0.169803 0.209292 -0.962997
vn -0.169802 0.209292 -0.962997
vn -0.488927 0.209292 -0.846846
vn -0.749079 0.209292 -0.628552
vn -0.918881 0.209292 -0.334446
vn -0.977853 0.209292 -0.000000
vn -0.918882 0.209292 0.334445
vn -0.749079 0.209292 0.628551
vn -0.488927 0.209292 0.846846
vn -0.169803 0.209292 0.962997
vn 0.169803 0.209292 0.962997
vn 0.488927 0.209292 0.846846
vn 0.749079 0.209292 0.628552
vn 0.918882 0.209292 0.334445
vn 0.977853 0.209292 0.000000
vn 0.939693 -0.000000 -0.342020
vn 0.766045 -0.000000 -0.642787
vn 0.500000 -0.000000 -0.866025
vn 0.173649 0.000000 -0.984808
vn -0.173648 0.000000 -0.984808
vn -0.500000 0.000000 -0.866025
vn -0.766044 0.000000 -0.642788
vn -0.939693 0.000000 -0.342020
vn -1.000000 0.000000 -0.000000
vn -0.939693 0.000000 0.342020
vn -0.766045 -0.000000 0.642787
vn -0.500000 -0.000000 0.866025
vn -0.173648 -0.000000 0.984808
vn 0.173648 -0.000000 0.984808
vn 0.500000 -0.000000 0.866025
vn 0.766045 -0.000000 0.642787
vn 0.939693 -0.000000 0.342020
vn 1.000000 0.000000 0.000000
s 1
g carbonCylinder
usemtl lambert3SG
f 19/38/1 39/112/2 40/113/3 20/78/4
f 20/39/4 40/114/3 41/115/5 21/80/6
f 21/40/6 41/116/5 42/117/7 22/82/8
f 22/41/8 42/118/7 43/119/9 23/84/10
f 23/42/10 43/120/9 44/121/11 24/86/12
f 24/43/12 44/122/11 45/123/13 25/88/14
f 25/44/14 45/124/13 46/125/15 26/90/16
f 26/45/16 46/126/15 47/127/17 27/92/18
f 27/46/18 47/128/17 48/129/19 28/94/20
f 28/47/20 48/130/19 49/131/21 29/96/22
f 29/48/22 49/132/21 50/133/23 30/98/24
f 30/49/24 50/134/23 51/135/25 31/100/26
f 31/50/26 51/136/25 52/137/27 32/102/28
f 32/51/28 52/138/27 53/139/29 33/104/30
f 33/52/30 53/140/29 54/141/31 34/106/32
f 34/53/32 54/142/31 55/143/33 35/108/34
f 35/54/34 55/144/33 56/145/35 36/110/36
f 36/55/36 56/146/35 39/111/2 19/56/1
s 2
f 2/2/37 1/1/38 37/75/39
f 3/3/40 2/2/37 37/75/39
f 4/4/41 3/3/40 37/75/39
f 5/5/42 4/4/41 37/75/39
f 6/6/43 5/5/42 37/75/39
f 7/7/44 6/6/43 37/75/39
f 8/8/45 7/7/44 37/75/39
f 9/9/46 8/8/45 37/75/39
f 10/10/47 9/9/46 37/75/39
f 11/11/48 10/10/47 37/75/39
f 12/12/49 11/11/48 37/75/39
f 13/13/50 12/12/49 37/75/39
f 14/14/51 13/13/50 37/75/39
f 15/15/52 14/14/51 37/75/39
f 16/16/53 15/15/52 37/75/39
f 17/17/54 16/16/53 37/75/39
f 18/18/55 17/17/54 37/75/39
f 1/1/38 18/18/55 37/75/39
s 3
f 19/73/56 20/72/57 38/76/58
f 20/72/57 21/71/59 38/76/58
f 21/71/59 22/70/60 38/76/58
f 22/70/60 23/69/61 38/76/58
f 23/69/61 24/68/62 38/76/58
f 24/68/62 25/67/63 38/76/58
f 25/67/63 26/66/64 38/76/58
f 26/66/64 27/65/65 38/76/58
f 27/65/65 28/64/66 38/76/58
f 28/64/66 29/63/67 38/76/58
f 29/63/67 30/62/68 38/76/58
f 30/62/68 31/61/69 38/76/58
f 31/61/69 32/60/70 38/76/58
f 32/60/70 33/59/71 38/76/58
f 33/59/71 34/58/72 38/76/58
f 34/58/72 35/57/73 38/76/58
f 35/57/73 36/74/74 38/76/58
f 36/74/74 19/73/56 38/76/58
s 1
f 40/113/3 39/112/2 57/148/75 58/149/76
f 41/115/5 40/114/3 58/150/76 59/151/77
f 42/117/7 41/116/5 59/152/77 60/153/78
f 43/119/9 42/118/7 60/154/78 61/155/79
f 44/121/11 43/120/9 61/156/79 62/157/80
f 45/123/13 44/122/11 62/158/80 63/159/81
f 46/125/15 45/124/13 63/160/81 64/161/82
f 47/127/17 46/126/15 64/162/82 65/163/83
f 48/129/19 47/128/17 65/164/83 66/165/84
f 49/131/21 48/130/19 66/166/84 67/167/85
f 50/133/23 49/132/21 67/168/85 68/169/86
f 51/135/25 50/134/23 68/170/86 69/171/87
f 52/137/27 51/136/25 69/172/87 70/173/88
f 53/139/29 52/138/27 70/174/88 71/175/89
f 54/141/31 53/140/29 71/176/89 72/177/90
f 55/143/33 54/142/31 72/178/90 73/179/91
f 56/145/35 55/144/33 73/180/91 74/181/92
f 39/111/2 56/146/35 74/182/92 57/147/75
f 58/149/76 57/148/75 75/184/93 76/185/94
f 59/151/77 58/150/76 76/186/94 77/187/95
f 60/153/78 59/152/77 77/188/95 78/189/96
f 61/155/79 60/154/78 78/190/96 79/191/97
f 62/157/80 61/156/79 79/192/97 80/193/98
f 63/159/81 62/158/80 80/194/98 81/195/99
f 64/161/82 63/160/81 81/196/99 82/197/100
f 65/163/83 64/162/82 82/198/100 83/199/101
f 66/165/84 65/164/83 83/200/101 84/201/102
f 67/167/85 66/166/84 84/202/102 85/203/103
f 68/169/86 67/168/85 85/204/103 86/205/104
f 69/171/87 68/170/86 86/206/104 87/207/105
f 70/173/88 69/172/87 87/208/105 88/209/106
f 71/175/89 70/174/88 88/210/106 89/211/107
f 72/177/90 71/176/89 89/212/107 90/213/108
f 73/179/91 72/178/90 90/214/108 91/215/109
f 74/181/92 73/180/91 91/216/109 92/217/110
f 57/147/75 74/182/92 92/218/110 75/183/93
f 76/185/94 75/184/93 1/19/111 2/77/112
f 77/187/95 76/186/94 2/20/112 3/79/113
f 78/189/96 77/188/95 3/21/113 4/81/114
f 79/191/97 78/190/96 4/22/114 5/83/115
f 80/193/98 79/192/97 5/23/115 6/85/116
f 81/195/99 80/194/98 6/24/116 7/87/117
f 82/197/100 81/196/99 7/25/117 8/89/118
f 83/199/101 82/198/100 8/26/118 9/91/119
f 84/201/102 83/200/101 9/27/119 10/93/120
f 85/203/103 84/202/102 10/28/120 11/95/121
f 86/205/104 85/204/103 11/29/121 12/97/122
f 87/207/105 86/206/104 12/30/122 13/99/123
f 88/209/106 87/208/105 13/31/123 14/101/124
f 89/211/107 88/210/106 14/32/124 15/103/125
f 90/213/108 89/212/107 15/33/125 16/105/126
f 91/215/109 90/214/108 16/34/126 17/107/127
f 92/217/110 91/216/109 17/35/127 18/109/128
f 75/183/93 92/218/110 18/36/128 1/37/111
