# This file uses centimeters as units for non-parametric coordinates.

mtllib dubbelPin.mtl
g default
v 0.063688 -0.064941 -0.064279
v 0.033067 -0.057938 -0.086603
v 0.001680 -0.043171 -0.098481
v -0.022878 -0.018614 -0.098481
v -0.037644 0.012773 -0.086603
v -0.044647 0.043394 -0.064279
v -0.044647 0.043394 0.064279
v -0.037644 0.012773 0.086603
v -0.022878 -0.018614 0.098481
v 0.001680 -0.043171 0.098481
v 0.033067 -0.057938 0.086603
v 0.063688 -0.064941 0.064279
v 1.495834 1.367205 -0.064279
v 1.477022 1.386017 -0.086603
v 1.453945 1.409094 -0.098481
v 1.429387 1.433651 -0.098481
v 1.406311 1.456728 -0.086603
v 1.387499 1.475540 -0.064279
v 1.387499 1.475540 0.064279
v 1.406311 1.456728 0.086603
v 1.429387 1.433651 0.098481
v 1.453945 1.409094 0.098481
v 1.477022 1.386017 0.086603
v 1.495834 1.367205 0.064279
v -0.010599 -0.030893 0.000000
v 1.441666 1.421372 0.000000
v 1.389524 1.260895 -0.064279
v 1.389082 1.260453 0.064279
v 2.095507 0.661001 0.000000
v 1.280482 1.368523 -0.064279
v 1.280257 1.368298 0.064279
v 0.756872 1.999037 -0.000000
vt 0.486056 0.480660
vt 0.486056 0.480660
vt 0.486056 0.480660
vt 0.486056 0.480660
vt 0.486056 0.480660
vt 0.486056 0.480660
vt 0.486056 0.480660
vt 0.486056 0.480660
vt 0.486056 0.480660
vt 0.486056 0.480660
vt 0.486056 0.480660
vt 0.486056 0.701530
vt 0.486056 0.480660
vt 0.486056 0.480660
vt 0.265186 0.480660
vt 0.265186 0.480660
vt 0.265186 0.480660
vt 0.486056 0.480660
vt 0.265186 0.480660
vt 0.486056 0.480660
vt 0.265186 0.480660
vt 0.265186 0.480660
vt 0.265186 0.480660
vt 0.486056 0.480660
vt 0.486056 0.701530
vt 0.486056 0.701530
vt 0.265186 0.701530
vt 0.265186 0.701530
vt 0.265186 0.480660
vt 0.486056 0.701530
vt 0.486056 0.701530
vt 0.486056 0.701530
vt 0.265186 0.701530
vt 0.265186 0.701530
vt 0.265186 0.480660
vt 0.486056 0.701530
vt 0.486056 0.480660
vt 0.265186 0.480660
vt 0.265186 0.480660
vt 0.265186 0.480660
vt 0.265186 0.480660
vt 0.265186 0.480660
vt 0.486056 0.480660
vt 0.265186 0.480660
vt 0.265186 0.480660
vt 0.265186 0.480660
vt 0.265186 0.480660
vt 0.486056 0.701530
vt 0.486056 0.701530
vt 0.265186 0.480660
vt 0.486056 0.701530
vt 0.265186 0.701530
vt 0.525437 0.209236
vt 0.525437 0.209236
vt 0.486056 0.480660
vt 0.265186 0.701530
vt 0.525437 0.209236
vt 0.526186 0.043778
vt 0.676150 0.119839
vt 0.525437 0.209236
vt 0.526186 0.043778
vt 0.676150 0.119839
vt 0.525437 0.209236
vt 0.526186 0.043778
vt 0.676150 0.119839
vt 0.526186 0.043778
vt 0.676150 0.119839
vt 0.526186 0.043778
vt 0.676150 0.119839
vt 0.525437 0.209236
vt 0.526186 0.043778
vt 0.676150 0.119839
vt 0.525437 0.209236
vt 0.526186 0.043778
vt 0.676150 0.119839
vt 0.525437 0.209236
vt 0.526186 0.043778
vt 0.676150 0.119839
vt 0.265186 0.480660
vt 0.486056 0.480660
vt 0.265186 0.480660
vt 0.486056 0.480660
vt 0.486056 0.701530
vt 0.265186 0.701530
vt 0.486056 0.480660
vt 0.486056 0.701530
vt 0.486056 0.480660
vt 0.486056 0.701530
vt 0.486056 0.701530
vt 0.265186 0.701530
vt 0.265186 0.480660
vt 0.486056 0.480660
vt 0.486056 0.701530
vt 0.265186 0.480660
vt 0.486056 0.480660
vt 0.265186 0.480660
vt 0.486056 0.480660
vt 0.486056 0.701530
vt 0.265186 0.701530
vt 0.486056 0.480660
vt 0.486056 0.701530
vt 0.486056 0.480660
vt 0.486056 0.701530
vt 0.486056 0.701530
vt 0.265186 0.701530
vt 0.265186 0.480660
vt 0.486056 0.701530
vt 0.265186 0.480660
vt 0.486056 0.701530
vt 0.265186 0.480660
vt 0.486056 0.701530
vt 0.265186 0.480660
vt 0.486056 0.701530
vt 0.265186 0.480660
vt 0.486056 0.701530
vt 0.265186 0.480660
vt 0.486056 0.701530
vt 0.265186 0.480660
vt 0.486056 0.701530
vt 0.265186 0.480660
vt 0.486056 0.701530
vt 0.265186 0.480660
vt 0.486056 0.701530
vt 0.265186 0.480660
vt 0.486056 0.701530
vt 0.265186 0.480660
vt 0.486056 0.480660
vt 0.486056 0.701530
vt 0.486056 0.480660
vt 0.486056 0.701530
vt 0.486056 0.480660
vt 0.486056 0.701530
vt 0.486056 0.480660
vt 0.486056 0.701530
vt 0.486056 0.701530
vt 0.486056 0.480660
vt 0.486056 0.701530
vt 0.486056 0.480660
vt 0.486056 0.701530
vt 0.486056 0.480660
vt 0.486056 0.701530
vt 0.486056 0.480660
vt 0.486056 0.701530
vt 0.486056 0.701530
vt 0.486056 0.480660
vt 0.486056 0.480660
vt 0.265186 0.480660
vt 0.265186 0.701530
vt 0.265186 0.480660
vt 0.486056 0.480660
vt 0.265186 0.480660
vt 0.265186 0.480660
vt 0.486056 0.480660
vt 0.265186 0.480660
vt 0.486056 0.701530
vt 0.265186 0.701530
vn 0.454522 -0.454522 -0.766041
vn 0.454522 -0.454522 -0.766041
vn 0.454522 -0.454522 -0.766041
vn 0.353555 -0.353555 -0.866024
vn 0.122788 -0.122788 -0.984808
vn 0.122788 -0.122788 -0.984808
vn 0.353555 -0.353555 -0.866024
vn -0.122789 0.122789 -0.984807
vn -0.122789 0.122789 -0.984807
vn -0.353553 0.353553 -0.866025
vn -0.353553 0.353553 -0.866025
vn -0.640856 0.640856 -0.422620
vn -0.640856 0.640856 -0.422620
vn 0.684902 0.728635 0.000001
vn 0.684902 0.728635 -0.000001
vn 0.707107 0.707107 -0.000000
vn -0.454517 0.454517 0.766047
vn -0.454517 0.454517 0.766047
vn -0.454517 0.454517 0.766047
vn -0.353554 0.353554 0.866025
vn -0.122789 0.122789 0.984807
vn -0.122789 0.122789 0.984807
vn -0.353554 0.353554 0.866025
vn 0.122787 -0.122787 0.984808
vn 0.122787 -0.122787 0.984808
vn 0.353554 -0.353554 0.866025
vn 0.353554 -0.353554 0.866025
vn 0.640857 -0.640857 0.422616
vn 0.640857 -0.640857 0.422616
vn -0.647265 -0.762250 -0.004843
vn -0.647265 -0.762250 -0.004843
vn -0.647265 -0.762250 -0.004843
vn -0.377143 -0.921012 0.097470
vn -0.365086 -0.928352 0.069821
vn -0.707107 -0.707106 0.000001
vn -0.579021 -0.814782 0.029396
vn -0.814783 -0.579021 0.029397
vn -0.921013 -0.377141 0.097468
vn -0.928351 -0.365088 0.069819
vn -0.921013 -0.377142 -0.097466
vn -0.928352 -0.365087 -0.069817
vn -0.814783 -0.579021 -0.029397
vn -0.579024 -0.814780 -0.029394
vn -0.377144 -0.921012 -0.097466
vn -0.365086 -0.928352 -0.069820
vn 0.707105 0.707108 0.000002
vn 0.707106 0.707108 0.000003
vn 0.707107 0.707107 0.000003
vn 0.707107 0.707107 0.000002
vn 0.707108 0.707106 0.000003
vn 0.707108 0.707106 -0.000003
vn 0.707107 0.707107 -0.000003
vn 0.707107 0.707107 -0.000002
vn 0.707106 0.707108 -0.000003
vn 0.707105 0.707108 -0.000002
vn 0.454522 -0.454522 0.766042
vn 0.454522 -0.454522 0.766042
vn 0.454522 -0.454522 0.766042
vn 0.640857 -0.640857 -0.422616
vn 0.640857 -0.640857 -0.422616
vn 0.049104 -0.049104 -0.997586
vn 0.049104 -0.049104 -0.997586
vn 0.049104 -0.049104 -0.997586
vn 0.049104 -0.049104 0.997586
vn 0.049104 -0.049104 0.997586
vn 0.049104 -0.049104 0.997586
vn 0.762259 0.647272 0.000000
vn 0.762259 0.647272 0.000000
vn 0.762259 0.647272 0.000000
vn -0.640856 0.640856 0.422620
vn -0.640856 0.640856 0.422620
vn -0.769433 -0.638723 -0.002467
vn -0.769433 -0.638723 -0.002467
vn -0.769433 -0.638723 -0.002467
vn -0.055523 0.055523 0.996912
vn -0.055523 0.055523 0.996912
vn -0.055523 0.055523 0.996912
vn 0.638725 0.769435 0.000000
vn -0.055523 0.055523 -0.996912
vn -0.055523 0.055523 -0.996912
vn -0.055523 0.055523 -0.996912
vn -0.454517 0.454517 -0.766047
vn -0.454517 0.454517 -0.766047
vn -0.454517 0.454517 -0.766047
s off
g dubbelPin
usemtl lambert3SG
f 27/79/1 14/80/2 13/25/3
s 1
f 2/81/4 3/82/5 15/83/6 14/84/7
f 3/15/5 4/85/8 16/86/9 15/27/6
f 4/16/8 5/87/10 17/88/11 16/28/9
f 5/17/10 6/18/12 30/89/13 17/90/11
s 2
f 18/91/14 19/92/15 26/93/16
s off
f 31/94/17 20/95/18 19/31/19
s 1
f 8/96/20 9/97/21 21/98/22 20/99/23
f 9/21/21 10/100/24 22/101/25 21/33/22
f 10/22/24 11/102/26 23/103/27 22/34/25
f 11/23/26 12/24/28 28/104/29 23/105/27
s off
f 29/58/30 28/59/31 27/60/32
s 4
f 2/106/33 1/1/34 25/107/35
f 3/108/36 2/2/33 25/109/35
f 4/110/37 3/3/36 25/111/35
f 5/112/38 4/4/37 25/113/35
f 6/114/39 5/5/38 25/115/35
f 8/116/40 7/7/41 25/117/35
f 9/118/42 8/8/40 25/119/35
f 10/120/43 9/9/42 25/121/35
f 11/122/44 10/10/43 25/123/35
f 12/124/45 11/11/44 25/125/35
s 2
f 13/126/46 14/127/47 26/128/16
f 14/47/47 15/129/48 26/130/16
f 15/46/48 16/131/49 26/132/16
f 16/45/49 17/133/50 26/134/16
f 17/44/50 18/43/14 26/135/16
f 19/42/15 20/136/51 26/137/16
f 20/41/51 21/138/52 26/139/16
f 21/40/52 22/140/53 26/141/16
f 22/39/53 23/142/54 26/143/16
f 23/38/54 24/37/55 26/144/16
f 26/50/16 24/145/55 13/48/46
s off
f 23/35/56 28/146/57 24/36/58
s 1
f 1/147/59 2/14/4 14/26/7 27/148/60
s off
f 27/61/61 13/62/62 29/63/63
f 24/64/64 28/65/65 29/54/66
f 13/66/67 24/67/68 29/53/69
s 1
f 12/149/28 1/150/59 27/51/60 28/52/29
s 4
f 25/151/35 1/13/34 12/12/45
f 7/152/41 6/153/39 25/49/35
s 1
f 30/154/13 6/6/12 7/155/70 31/156/71
s off
f 30/68/72 31/69/73 32/70/74
f 31/71/75 19/72/76 32/73/77
s 2
f 19/74/15 18/75/14 32/76/78
s off
f 18/77/79 30/78/80 32/57/81
s 1
f 7/19/70 8/20/20 20/32/23 31/56/71
s off
f 17/29/82 30/55/83 18/30/84
